lab3_isaac
…
For this problem, we arranged our output by arranging it from left to right going from most democrat to most republican and then to the other party affiliations. From what it looks like, people who are sure of their party tend to have a higher average years of education than those who didn't know or didn't answer. It also seems like subjects who fell into republican categories have a higher number of average years of education than other affiliations.

Create a single data frame containing records for the better educated respondents in each political party affiliation. A better educated respondent is someone who has strictly more years of education than the median in the same party affiliation. Print the structure of the data frame.

higherEdu <- dat %>% left_join(eduParty, by = "Political") %>% filter(HS_Level > Avg_Edu)
higherEdu

## # A tibble: 27,842 x 10
##     Year    ID Marital_Status HS_Level Gender Political Happy Ballot_Used
##    <dbl> <dbl> <chr>             <int> <chr>  <chr>     <chr> <chr>      
##  1  1972     1 Never married        16 Female Ind,near Not  Not applic
##  2  1972     4 Married              17 Female Not str  Not  Not applic
##  3  1972     6 Never married        14 Male   Ind,near Pret Not applic
##  4  1972     8 Never married        16 Male   Ind,near Not  Not applic
##  5  1972    11 Married              13 Female Strong d Pret Not applic
##  6  1972    16 Married              14 Male   Strong d Not  Not applic
##  7  1972    17 Married              14 Male   Ind,near Very Not applic
##  8  1972    19 Married              17 Female Ind,near Very Not applic
##  9  1972    20 Never married        14 Female Ind,near Very Not applic
## 10  1972    25 Married              16 Female Strong r Pret Not applic
## #  with 27,832 more rows, and 2 more variables: Avg_Edu <dbl>, Rank <dbl>
…
